{
  "project_info": {
    "project_number": "792486848216",
    "firebase_url": "https://ionscan-d119b.firebaseio.com",
    "project_id": "ionscan-d119b",
    "storage_bucket": "ionscan-d119b.appspot.com"
  },
  "client": [
    {
      "client_info": {
        "mobilesdk_app_id": "1:792486848216:android:828b92b822216d3cd2d9ad",
        "android_client_info": {
          "package_name": "com.ionScanApp"
        }
      },
      "oauth_client": [
        {
          "client_id": "792486848216-7mlrlf10jul4jl0hio8cqdqtctmo5kgb.apps.googleusercontent.com",
          "client_type": 1,
          "android_info": {
            "package_name": "com.ionScanApp",
            "certificate_hash": "44a08bc8cd95de9bf3948f915ec15f8fc67096a2"
          }
        },
        {
          "client_id": "792486848216-81o8gfr336nqkep593i3n7mt4g2oh1uf.apps.googleusercontent.com",
          "client_type": 1,
          "android_info": {
            "package_name": "com.ionScanApp",
            "certificate_hash": "b0f2efc9bd83b7057fd8c32cd3c85eb4178a2628"
          }
        },
        {
          "client_id": "792486848216-93gc5imqts1ukqoqbuvhn2p8g96rbgko.apps.googleusercontent.com",
          "client_type": 3
        }
      ],
      "api_key": [
        {
          "current_key": "AIzaSyCUaBVpCXJmlxCzMvZnqk2w6qKI047Tvcs"
        }
      ],
      "services": {
        "appinvite_service": {
          "other_platform_oauth_client": [
            {
              "client_id": "792486848216-93gc5imqts1ukqoqbuvhn2p8g96rbgko.apps.googleusercontent.com",
              "client_type": 3
            }
          ]
        }
      }
    }
  ],
  "configuration_version": "1"
}